saint_analysis.R
…
saint_and_interfaces %>% 
  select(gene_name, partner, sample, AvgP, mean_n_contacts, scaled) %>% 
  complete(gene_name, nesting(sample), fill = list(AvgP = -1.5)) %>% 
  filter(gene_name %in% core_partners & gene_name == partner) %>% 
  arrange(partner, sample)

## # A tibble: 474 x 6
##    gene_name sample  partner   AvgP mean_n_contacts scaled
##    <chr>     <chr>   <chr>    <dbl>           <dbl>  <dbl>
##  1 CRM1      C_A180T CRM1    0.111             1    -0.899
##  2 CRM1      C_F58A  CRM1    0.147             1    -0.794
##  3 CRM1      C_G80A  CRM1    0.0932            2.9  -0.950
##  4 CRM1      C_H141I CRM1    0.205             5.4  -0.623
##  5 CRM1      C_H141V CRM1    0.205             5.4  -0.624
##  6 CRM1      C_K101R CRM1    0.133             2.67 -0.835
##  7 CRM1      C_K132H CRM1    0.0945            1    -0.946
##  8 CRM1      C_K143W CRM1    0.147             2.54 -0.793
##  9 CRM1      C_N105L CRM1    0.15              2.25 -0.784
## 10 CRM1      C_R108A CRM1    0.051             5.6  -1.07 
## # ... with 464 more rows
…
